Bob Ross Colors - Analysis
…
view(bob_ross)

abundant_colors <- bob_ross %>%
  group_by(season) %>%
  summarize(mean(num_colors))
abundant_colors

# A tibble: 31 × 2
   season `mean(num_colors)`
    <dbl>              <dbl>
 1      1               7.08
 2      2              11.2 
 3      3               9.85
 4      4              10   
 5      5               8.54
 6      6              10.5 
 7      7               9.38
 8      8              10.6 
 9      9              10.8 
10     10              11.4 
# ℹ 21 more rows
…
